[
    {
        "amount" : 150,
        "reason" : "Car - Insurance, Taxes",
        "labels" : [
            "PAYMENT", "CAR"
        ]
    },
    {
        "amount" : 100,
        "reason" : "Car - Petrol",
        "labels" : [
            "PAYMENT", "CAR"
        ]
    }
]
