[
    {
        "amount" : 259,
        "reason" : "Platanus - Henry",
        "labels" : [
            "PAYMENT", "SCHOOL"
        ]
    },
    {
        "amount" : 181,
        "reason" : "Platanus - George",
        "labels" : [
            "PAYMENT", "SCHOOL"
        ]
    },
    {
        "amount" : 181,
        "reason" : "Platanus - Ladia Joice",
        "labels" : [
            "PAYMENT", "SCHOOL"
        ]
    },
    {
        "amount" : 23,
        "reason" : "Kita - Lisa",
        "labels" : [
            "PAYMENT", "SCHOOL"
        ]
    }
]
